{
  "version": "v4",
  "repo": "borisyankov/DefinitelyTyped",
  "ref": "master",
  "path": "typings",
  "bundle": "typings/tsd.d.ts",
  "installed": {
    "mocha/mocha.d.ts": {
      "commit": "8ea42cd8bb11863ed6f242d67c502288ebc45a7b"
    },
    "es6-promises/es6-promises.d.ts": {
      "commit": "8ea42cd8bb11863ed6f242d67c502288ebc45a7b"
    },
    "chai/chai.d.ts": {
      "commit": "8ea42cd8bb11863ed6f242d67c502288ebc45a7b"
    },
    "assertion-error/assertion-error.d.ts": {
      "commit": "8ea42cd8bb11863ed6f242d67c502288ebc45a7b"
    },
    "node/node.d.ts": {
      "commit": "8ea42cd8bb11863ed6f242d67c502288ebc45a7b"
    },
    "es6-promise/es6-promise.d.ts": {
      "commit": "8ea42cd8bb11863ed6f242d67c502288ebc45a7b"
    },
    "sequelize/sequelize.d.ts": {
      "commit": "8ea42cd8bb11863ed6f242d67c502288ebc45a7b"
    },
    "bluebird/bluebird.d.ts": {
      "commit": "8ea42cd8bb11863ed6f242d67c502288ebc45a7b"
    },
    "lodash/lodash.d.ts": {
      "commit": "8ea42cd8bb11863ed6f242d67c502288ebc45a7b"
    },
    "validator/validator.d.ts": {
      "commit": "8ea42cd8bb11863ed6f242d67c502288ebc45a7b"
    }
  }
}
